<svg xmlns="http://www.w3.org/2000/svg" viewBox="0 0 52.07 37.24">
    <defs>
        <style>.cls-1{fill:#fff;}</style>
    </defs>
    <title>资源 6</title>
    <g id="图层_2" data-name="图层 2">
        <g id="Icons">
            <path class="cls-1"
                  d="M50.82,12H46.37A7.79,7.79,0,0,0,45,8.81L47.2,6.64a1.25,1.25,0,0,0-1.77-1.77L43.26,7A7.61,7.61,0,0,0,40,5.71V1.25a1.25,1.25,0,0,0-2.5,0V5.71A7.65,7.65,0,0,0,34.31,7L32.14,4.87a1.25,1.25,0,0,0-1.77,1.77l2.17,2.17a7.84,7.84,0,0,0-1.16,2.42,8.78,8.78,0,0,0-2.62.91A11.48,11.48,0,0,0,7.84,18.66,11.83,11.83,0,0,0,8,20.54a8.35,8.35,0,0,0,.35,16.7H39a8.35,8.35,0,0,0,2.92-16.17c0-.27,0-.53,0-.79a7.49,7.49,0,0,0,1.29-.75l2.17,2.17a1.29,1.29,0,0,0,.89.37,1.26,1.26,0,0,0,.88-2.14L45,17.76a7.8,7.8,0,0,0,1.34-3.22h4.45a1.25,1.25,0,0,0,0-2.5Zm-6,16.85A5.85,5.85,0,0,1,39,34.74H8.35A5.86,5.86,0,0,1,8.35,23h3l-.53-1.63a9.12,9.12,0,0,1-.43-2.74,9,9,0,0,1,16.91-4.2l.68,1.29,1.17-.88a6.72,6.72,0,0,1,2-1A6.52,6.52,0,0,1,33,13.57c.21,0,.43,0,.64,0a6.49,6.49,0,0,1,5.64,4.82,6.76,6.76,0,0,1,.21,1.64,5.19,5.19,0,0,1-.07.87,5.4,5.4,0,0,1-.13.7L39,22.9l1.26.27A5.87,5.87,0,0,1,44.85,28.89ZM41.63,17.62a9,9,0,0,0-7.56-6.48,5.19,5.19,0,1,1,7.56,6.48Z"/>
        </g>
    </g>
</svg>